Come TogetheR: Combining data tables in R with dplyr join verbs | Nineteenth-Century Criminal Tattoos
…
segments_data <-
  read_csv(here::here("_data", "body_segments_20210327.csv"), guess_max=100000)

For convenience, let’s make a couple of smaller subsets of the two tables. The shared key is the ID column subrecordid.

I’ll keep all the rows from segments, but only the body and designs columns.

segments <-
segments_data %>%
  select(subrecordid, body, designs)

segments

## # A tibble: 564,703 x 3
##    subrecordid body                designs                             
##    <chr>       <chr>               <chr>                               
##  1 cin77589    right arm           Man and woman|stars|dog             
##  2 cin77589    left arm            half|moon|stars|anchor|heart|diamond
##  3 cin77590    right arm           <NA>                                
##  4 cin77590    right hand          <NA>                                
##  5 cin77591    corner|left|eyebrow <NA>                                
##  6 cin77592    right arm           anchor                              
##  7 cin77592    <NA>                <NA>                                
##  8 cin77593    left hand           <NA>                                
##  9 cin77594    neck                <NA>                                
## 10 cin77595    corner|right eye    <NA>                                
## # … with 564,693 more rows

From descriptions, however, I’ll keep only those that contain tattoos, and the gender and year of birth columns.

descriptions <-
descriptions_data %>%
  filter(hastattoo=="y") %>%
  select(subrecordid, gender, born) 

descriptions

## # A tibble: 75,448 x 3
##    subrecordid gender  born
##    <chr>       <chr>  <dbl>
##  1 cin77589    m       1814
##  2 cin77590    m       1820
##  3 cin77592    m       1820
##  4 cin77598    m       1824
##  5 cin77603    m       1792
##  6 cin77604    m       1814
##  7 cin77609    m       1830
##  8 cin77614    m       1815
##  9 cin77616    m       1815
## 10 cin77619    m       1820
## # … with 75,438 more rows
…
In the following examples, you should think of segments as the left hand side and descriptions as the right hand side of the joins.

(NB that dplyr documentation refers to the right hand side as “x” and the left as “y”. R error messages - eg if you try to join on a non-existent key - will refer to “LHS” and “RHS”.)

inner_join and left_join

These two are examples of what the dplyr docs refer to as mutating joins, because they create new data tables.

First up, inner_join(): this means that only rows in segments that have a matching subrecordid in descriptions are returned. The columns in descriptions are appended on the right. So I now have 5 columns but only 269205 rows, instead of the original 564703. Note how the information from descriptions is repeated where it has multiple matches in segments.

segments %>%
  inner_join(descriptions, by="subrecordid")

## # A tibble: 269,205 x 5
##    subrecordid body           designs                              gender  born
##    <chr>       <chr>          <chr>                                <chr>  <dbl>
##  1 cin77589    right arm      Man and woman|stars|dog              m       1814
##  2 cin77589    left arm       half|moon|stars|anchor|heart|diamond m       1814
##  3 cin77590    right arm      <NA>                                 m       1820
##  4 cin77590    right hand     <NA>                                 m       1820
##  5 cin77592    right arm      anchor                               m       1820
##  6 cin77592    <NA>           <NA>                                 m       1820
##  7 cin77598    left arm       <NA>                                 m       1824
##  8 cin77603    right|shoulder Crucifix                             m       1792
##  9 cin77603    right arm      man and woman                        m       1792
## 10 cin77603    right arm      <NA>                                 m       1792
## # … with 269,195 more rows

Using left_join(), however, all the rows in segments are returned. Where there isn’t a matching subrecordid in descriptions, the right hand columns will be empty.
It’s useful because sometimes you’ll want to keep the whole of the left-hand data after the join, for example to make calculations or checks based on the presence or absence of the right hand data.

segments %>%
  left_join(descriptions, by="subrecordid")

## # A tibble: 564,703 x 5
##    subrecordid body               designs                           gender  born
##    <chr>       <chr>              <chr>                             <chr>  <dbl>
##  1 cin77589    right arm          Man and woman|stars|dog           m       1814
##  2 cin77589    left arm           half|moon|stars|anchor|heart|dia… m       1814
##  3 cin77590    right arm          <NA>                              m       1820
##  4 cin77590    right hand         <NA>                              m       1820
##  5 cin77591    corner|left|eyebr… <NA>                              <NA>      NA
##  6 cin77592    right arm          anchor                            m       1820
##  7 cin77592    <NA>               <NA>                              m       1820
##  8 cin77593    left hand          <NA>                              <NA>      NA
##  9 cin77594    neck               <NA>                              <NA>      NA
## 10 cin77595    corner|right eye   <NA>                              <NA>      NA
## # … with 564,693 more rows

anti_join and semi_join

These are called “filtering” joins. They don’t add the right-hand columns to the results. As the term suggests, they work in effect as filters, but instead of using criteria within the table you’re actually working on, the filtering behaviour is based on data in another table.

I use anti_join() a lot: it returns the rows in the left-hand table that don’t have a match in the right-hand table. Apart from using it as a filter, it’s often really important when you’re checking and cleaning data - for example, for finding errors or inconsistencies in references that you need to use as keys.

segments %>%
  anti_join(descriptions, by="subrecordid")

## # A tibble: 295,498 x 3
##    subrecordid body                designs
##    <chr>       <chr>               <chr>  
##  1 cin77591    corner|left|eyebrow <NA>   
##  2 cin77593    left hand           <NA>   
##  3 cin77594    neck                <NA>   
##  4 cin77595    corner|right eye    <NA>   
##  5 cin77595    chin                <NA>   
##  6 cin77595    inside|right|ear    <NA>   
##  7 cin77596    top|forehead        <NA>   
##  8 cin77596    over|right eye      <NA>   
##  9 cin77597    left cheek          <NA>   
## 10 cin77597    bone                <NA>   
## # … with 295,488 more rows

The second filtering join is semi_join(); it works like inner_join in that it returns only the left-hand rows that have a match on the right-hand side, but as with anti-join, it doesn’t append the right hand columns. You might wonder, what’s the point of that? But it’s faster and slightly easier if you simply want to use the join as a filter and don’t need any of the information in the right hand table.

segments %>%
  semi_join(descriptions, by="subrecordid")

## # A tibble: 269,205 x 3
##    subrecordid body           designs                             
##    <chr>       <chr>          <chr>                               
##  1 cin77589    right arm      Man and woman|stars|dog             
##  2 cin77589    left arm       half|moon|stars|anchor|heart|diamond
##  3 cin77590    right arm      <NA>                                
##  4 cin77590    right hand     <NA>                                
##  5 cin77592    right arm      anchor                              
##  6 cin77592    <NA>           <NA>                                
##  7 cin77598    left arm       <NA>                                
##  8 cin77603    right|shoulder Crucifix                            
##  9 cin77603    right arm      man and woman                       
## 10 cin77603    right arm      <NA>                                
## # … with 269,195 more rows

do stuff inside the join function

Because of the way that tidyverse “pipes” work, you can manipulate the right-hand table inside the join. Let’s say I’d like to look at only descriptions in the Register of Habitual Criminals dataset: I can do the filter before applying the join.

segments %>%
  inner_join(descriptions_data %>%
               filter(dataset=="rhc") %>%
               select(subrecordid, gender), by="subrecordid")

## # A tibble: 450,109 x 4
##    subrecordid body           designs gender
##    <chr>       <chr>          <chr>   <chr> 
##  1 rhc1        right|nose     <NA>    f     
##  2 rhc10       eyes           <NA>    m     
##  3 rhc100      back|head      <NA>    m     
##  4 rhc100      bottom|stomach <NA>    m     
##  5 rhc100      right|neck     <NA>    m     
##  6 rhc100      forehead       <NA>    m     
##  7 rhc100      right hand     <NA>    m     
##  8 rhc100      thigh          <NA>    m     
##  9 rhc100      nose           <NA>    m     
## 10 rhc100      left|thigh     <NA>    m     
## # … with 450,099 more rows

using multiple variables as a key

Sometimes you need to join on more than one variable to ensure that your key is unique. In this case you have to combine the multiple keys in the by="" argument into a vector using c() (c("key1", "key2", "etc")).

(It doesn’t actually make any difference in this example; it’s just a demonstration. But it will matter in the following example.)

segments_data %>%
  select(subrecordid, life_id, body) %>%
  inner_join(descriptions_data %>%
               filter(hastattoo=="y") %>%
               select(subrecordid, life_id, gender), 
             by=c("subrecordid", "life_id"))

## # A tibble: 269,205 x 4
##    subrecordid life_id  body           gender
##    <chr>       <chr>    <chr>          <chr> 
##  1 cin77589    cin77589 right arm      m     
##  2 cin77589    cin77589 left arm       m     
##  3 cin77590    cin77590 right arm      m     
##  4 cin77590    cin77590 right hand     m     
##  5 cin77592    cin77592 right arm      m     
##  6 cin77592    cin77592 <NA>           m     
##  7 cin77598    cin77598 left arm       m     
##  8 cin77603    cin77603 right|shoulder m     
##  9 cin77603    cin77603 right arm      m     
## 10 cin77603    cin77603 right arm      m     
## # … with 269,195 more rows
…
Now what?

As in the last post, after joining I need to tidy designs onto separate lines…

segments_joined <-
segments %>%
  inner_join(descriptions, by="subrecordid") %>%
  filter(!is.na(designs)) %>%
  unnest_tokens(design, designs, token="regex", pattern="\\|")

segments_joined

## # A tibble: 196,978 x 5
##    subrecordid body      gender  born design       
##    <chr>       <chr>     <chr>  <dbl> <chr>        
##  1 cin77589    right arm m       1814 man and woman
##  2 cin77589    right arm m       1814 stars        
##  3 cin77589    right arm m       1814 dog          
##  4 cin77589    left arm  m       1814 half         
##  5 cin77589    left arm  m       1814 moon         
##  6 cin77589    left arm  m       1814 stars        
##  7 cin77589    left arm  m       1814 anchor       
##  8 cin77589    left arm  m       1814 heart        
##  9 cin77589    left arm  m       1814 diamond      
## 10 cin77592    right arm m       1820 anchor       
## # … with 196,968 more rows
…
